{
	"info": {
		"_postman_id": "298cd8d5-79d4-424a-a243-4a1b7389010a",
		"name": "MentalHelp.me API",
		"description": "# Introduction\nWhat does your API do?\n\n# Overview\nServes our data from the MySQL database in an application friendly JSON format that is used to dynamically build our website.\n\n# Authentication\nSee documentation\n\n# Error Codes\n200 - OK\n404 - Not found\n500 - Internal Server Error\n-Regular HTTP repsonse codes-\n\n# Rate limit\nThere is not limit to the number of requests the API can handle, but there are only 4 workers serving the API so it can only handle 4 requests simultaneously.",
		"schema": "https://schema.getpostman.com/json/collection/v2.1.0/collection.json"
	},
	"item": [
		{
			"name": "Hospitals",
			"item": [
				{
					"name": "http://api.mentalhelp.me/Hospitals",
					"request": {
						"method": "GET",
						"header": [],
						"body": {
							"mode": "raw",
							"raw": ""
						},
						"url": {
							"raw": "http://api.mentalhelp.me/Hospitals",
							"protocol": "http",
							"host": [
								"api",
								"mentalhelp",
								"me"
							],
							"path": [
								"Hospitals"
							]
						},
						"description": "Returns a JSON string with one page of all hospitals from the database backend and metadata (default=10)"
					},
					"response": [
						{
							"name": "Default",
							"originalRequest": {
								"method": "GET",
								"header": [],
								"body": {
									"mode": "raw",
									"raw": ""
								},
								"url": {
									"raw": "http://api.mentalhelp.me/Hospitals",
									"protocol": "http",
									"host": [
										"api",
										"mentalhelp",
										"me"
									],
									"path": [
										"Hospitals"
									]
								}
							},
							"code": 200,
							"_postman_previewlanguage": null,
							"header": null,
							"cookie": [],
							"body": "{\"num_results\":10,\"objects\":[{hospital_data}...{hospital_data}], \"page\":<int>,\"total_pages\":<int>}"
						}
					]
				},
				{
					"name": "http://api.mentalhelp.me/Hospitals/<id>",
					"request": {
						"method": "GET",
						"header": [],
						"body": {
							"mode": "raw",
							"raw": ""
						},
						"url": {
							"raw": "http://api.mentalhelp.me/Hospitals/<id>",
							"protocol": "http",
							"host": [
								"api",
								"mentalhelp",
								"me"
							],
							"path": [
								"Hospitals",
								"<id>"
							]
						},
						"description": "Returns a JSON string of one specific hospital by its <id>"
					},
					"response": [
						{
							"name": "Default",
							"originalRequest": {
								"method": "GET",
								"header": [],
								"body": {
									"mode": "raw",
									"raw": ""
								},
								"url": {
									"raw": "http://api.mentalhelp.me/Hospitals/<id>",
									"protocol": "http",
									"host": [
										"api",
										"mentalhelp",
										"me"
									],
									"path": [
										"Hospitals",
										"<id>"
									]
								}
							},
							"code": 200,
							"_postman_previewlanguage": null,
							"header": null,
							"cookie": [],
							"body": "{\"attribute\":\"value\",...\"attribute\":\"value\"}"
						}
					]
				}
			],
			"description": "Hospitals collection API requests"
		},
		{
			"name": "Charities",
			"item": [
				{
					"name": "http://api.mentalhelp.me/Charities",
					"request": {
						"method": "GET",
						"header": [],
						"body": {
							"mode": "raw",
							"raw": ""
						},
						"url": {
							"raw": "http://api.mentalhelp.me/Charities",
							"protocol": "http",
							"host": [
								"api",
								"mentalhelp",
								"me"
							],
							"path": [
								"Charities"
							]
						},
						"description": "Returns a JSON string with one page of all charities from the database backend and metadata (default=10)"
					},
					"response": [
						{
							"name": "Default",
							"originalRequest": {
								"method": "GET",
								"header": [],
								"body": {
									"mode": "raw",
									"raw": ""
								},
								"url": {
									"raw": "http://api.mentalhelp.me/Charities",
									"protocol": "http",
									"host": [
										"api",
										"mentalhelp",
										"me"
									],
									"path": [
										"Charities"
									]
								}
							},
							"code": 200,
							"_postman_previewlanguage": null,
							"header": null,
							"cookie": [],
							"body": "{\"num_results\":10,\"objects\":[{charity_data}...{charity_data}], \"page\":<int>,\"total_pages\":<int>}"
						}
					]
				},
				{
					"name": "http://api.mentalhelp.me/Charities/<id>",
					"request": {
						"method": "GET",
						"header": [],
						"body": {
							"mode": "raw",
							"raw": ""
						},
						"url": {
							"raw": "http://api.mentalhelp.me/Charities/<id>",
							"protocol": "http",
							"host": [
								"api",
								"mentalhelp",
								"me"
							],
							"path": [
								"Charities",
								"<id>"
							]
						},
						"description": "Returns a JSON string of one specific charity by its <id>"
					},
					"response": [
						{
							"name": "Default",
							"originalRequest": {
								"method": "GET",
								"header": [],
								"body": {
									"mode": "raw",
									"raw": ""
								},
								"url": {
									"raw": "http://api.mentalhelp.me/Charities/<id>",
									"protocol": "http",
									"host": [
										"api",
										"mentalhelp",
										"me"
									],
									"path": [
										"Charities",
										"<id>"
									]
								}
							},
							"code": 200,
							"_postman_previewlanguage": null,
							"header": null,
							"cookie": [],
							"body": "{\"attribute\":\"value\",...\"attribute\":\"value\"}"
						}
					]
				}
			],
			"description": "Charities collection API requests"
		},
		{
			"name": "Illnesses",
			"item": [
				{
					"name": "http://api.mentalhelp.me/Illnesses",
					"request": {
						"method": "GET",
						"header": [],
						"body": {
							"mode": "raw",
							"raw": ""
						},
						"url": {
							"raw": "http://api.mentalhelp.me/Illnesses",
							"protocol": "http",
							"host": [
								"api",
								"mentalhelp",
								"me"
							],
							"path": [
								"Illnesses"
							]
						},
						"description": "Returns a JSON string with one page of all illnesses from the database backend and metadata (default=10)"
					},
					"response": [
						{
							"name": "Default",
							"originalRequest": {
								"method": "GET",
								"header": [],
								"body": {
									"mode": "raw",
									"raw": ""
								},
								"url": {
									"raw": "http://api.mentalhelp.me/Illnesses",
									"protocol": "http",
									"host": [
										"api",
										"mentalhelp",
										"me"
									],
									"path": [
										"Illnesses"
									]
								}
							},
							"code": 200,
							"_postman_previewlanguage": null,
							"header": null,
							"cookie": [],
							"body": "{\"num_results\":10,\"objects\":[{illness_data}...{illness_data}], \"page\":<int>,\"total_pages\":<int>}"
						}
					]
				},
				{
					"name": "http://api.mentalhelp.me/Illnesses/<id>",
					"request": {
						"method": "GET",
						"header": [],
						"body": {
							"mode": "raw",
							"raw": ""
						},
						"url": {
							"raw": "http://api.mentalhelp.me/Illnesses/<id>",
							"protocol": "http",
							"host": [
								"api",
								"mentalhelp",
								"me"
							],
							"path": [
								"Illnesses",
								"<id>"
							]
						},
						"description": "Returns a JSON string of one specific illness by its <id>"
					},
					"response": [
						{
							"name": "Default",
							"originalRequest": {
								"method": "GET",
								"header": [],
								"body": {
									"mode": "raw",
									"raw": ""
								},
								"url": {
									"raw": "http://api.mentalhelp.me/Illnesses/<id>",
									"protocol": "http",
									"host": [
										"api",
										"mentalhelp",
										"me"
									],
									"path": [
										"Illnesses",
										"<id>"
									]
								}
							},
							"code": 200,
							"_postman_previewlanguage": null,
							"header": null,
							"cookie": [],
							"body": "{\"attribute\":\"value\",...\"attribute\":\"value\"}"
						}
					]
				}
			],
			"description": "Illnesses collection API requests"
		},
		{
			"name": "http://api.mentalhelp.me/<Collection>?q=\"query string\"",
			"request": {
				"method": "GET",
				"header": [],
				"body": {
					"mode": "raw",
					"raw": ""
				},
				"url": {
					"raw": "http://api.mentalhelp.me/<Collection>?q=\"query string\"",
					"protocol": "http",
					"host": [
						"api",
						"mentalhelp",
						"me"
					],
					"path": [
						"<Collection>"
					],
					"query": [
						{
							"key": "q",
							"value": "\"query string\""
						}
					]
				},
				"description": "Returns a JSON string of objects that match the input query -- to see how to format the query string, see https://flask-restless.readthedocs.io/en/stable/searchformat.html"
			},
			"response": [
				{
					"name": "Default",
					"originalRequest": {
						"method": "GET",
						"header": [],
						"body": {
							"mode": "raw",
							"raw": ""
						},
						"url": {
							"raw": "http://api.mentalhelp.me/<Collection>?q=\"query string\"",
							"protocol": "http",
							"host": [
								"api",
								"mentalhelp",
								"me"
							],
							"path": [
								"<Collection>"
							],
							"query": [
								{
									"key": "q",
									"value": "\"query string\""
								}
							]
						}
					},
					"code": 200,
					"_postman_previewlanguage": null,
					"header": null,
					"cookie": [],
					"body": "{\"objects\":[\"all objects that match the query string\"]}"
				}
			]
		}
	]
}